{"msg":"init","dagFile":"artifacts\\tundra.dag","targets":[]}
{"msg":"inputSignatureChanged","annotation":"Il2Cpp C:/Unity_projects/kart/Library/Il2cppBuildCache/WebGL/Native/build.bc","index":2,"changes":[{"key":"InputFileDigest","path":"C:\\Unity_projects\\kart\\Temp\\StagingArea\\Data\\Managed\\Assembly-CSharp.dll","dependency":"explicit"},{"key":"InputFileDigest","path":"C:\\Unity_projects\\kart\\Temp\\StagingArea\\Data\\Managed\\Photon3Unity3D.dll","dependency":"explicit"},{"key":"InputFileDigest","path":"C:\\Unity_projects\\kart\\Temp\\StagingArea\\Data\\Managed\\PhotonChat.dll","dependency":"explicit"},{"key":"InputFileDigest","path":"C:\\Unity_projects\\kart\\Temp\\StagingArea\\Data\\Managed\\PhotonRealtime.dll","dependency":"explicit"},{"key":"InputFileDigest","path":"C:\\Unity_projects\\kart\\Temp\\StagingArea\\Data\\Managed\\PhotonUnityNetworking.Demos.dll","dependency":"explicit"},{"key":"InputFileDigest","path":"C:\\Unity_projects\\kart\\Temp\\StagingArea\\Data\\Managed\\PhotonUnityNetworking.dll","dependency":"explicit"},{"key":"InputFileDigest","path":"C:\\Unity_projects\\kart\\Temp\\StagingArea\\Data\\Managed\\PhotonUnityNetworking.Utilities.dll","dependency":"explicit"},{"key":"InputFileDigest","path":"C:\\Unity_projects\\kart\\Temp\\StagingArea\\Data\\Managed\\PhotonWebSocket.dll","dependency":"explicit"},{"key":"InputFileDigest","path":"C:\\Unity_projects\\kart\\Temp\\StagingArea\\Data\\Managed\\UnityEngine.UI.dll","dependency":"explicit"}]}
{"msg":"noderesult","annotation":"Il2Cpp C:/Unity_projects/kart/Library/Il2cppBuildCache/WebGL/Native/build.bc","index":2,"exitcode":4,"stdout":"Building build.bc with EmscriptenToolChain\r\n\tOutput directory: C:\\Unity_projects\\kart\\Library\\Il2cppBuildCache\\WebGL\\Native\r\n\tCache directory: C:\\Unity_projects\\kart\\Library\\il2cpp_cache\r\nObjectFiles: 246 of which compiled: 17\r\n\tTime Compile: 6900 milliseconds Il2CppGenericMethodPointerTable.cpp\r\n\tTime Compile: 6544 milliseconds UnityEngine.UI_Attr.cpp\r\n\tTime Compile: 6328 milliseconds PhotonUnityNetworking.Demos_Attr.cpp\r\n\tTime Compile: 6116 milliseconds Il2CppMetadataUsage.c\r\n\tTime Compile: 5315 milliseconds PhotonUnityNetworking_Attr.cpp\r\n\tTime Compile: 4917 milliseconds PhotonUnityNetworking.Utilities_Attr.cpp\r\n\tTime Compile: 4735 milliseconds PhotonChat_Attr.cpp\r\n\tTime Compile: 4699 milliseconds Assembly-CSharp_Attr.cpp\r\n\tTime Compile: 4668 milliseconds PhotonRealtime_CodeGen.c\r\n\tTime Compile: 4408 milliseconds Il2CppGenericMethodTable.c\r\nTotal compilation time: 22474 milliseconds.\r\nResponse file: C:\\Users\\rahul\\AppData\\Local\\Temp\\_1994988261\\response.rsp\r\nResponse file: C:\\Users\\rahul\\AppData\\Local\\Temp\\_750210795\\response.rsp\r\nError: Unity.IL2CPP.Building.BuilderFailedException: \"C:\\Program Files\\Unity\\Hub\\Editor\\2020.3.1f1\\Editor\\Data\\PlaybackEngines\\WebGLSupport\\BuildTools\\Emscripten_Win\\python\\2.7.5.3_64bit\\python.exe\" -E \"C:\\Program Files\\Unity\\Hub\\Editor\\2020.3.1f1\\Editor\\Data\\PlaybackEngines\\WebGLSupport\\BuildTools\\Emscripten\\emcc\" -o \"C:\\Unity_projects\\kart\\Library\\il2cpp_cache\\linkresult_70B9FED35ACF3825B4B190466A692B50\\build.bc\" -s TOTAL_MEMORY=384MB -s DISABLE_EXCEPTION_CATCHING=0 -s WASM=0 -O3 \"C:\\Program Files\\Unity\\Hub\\Editor\\2020.3.1f1\\Editor\\Data\\PlaybackEngines\\WebGLSupport\\BuildTools\\lib\\modules_optsize\\WebGLSupport_AccessibilityModule_Dynamic.bc\" \"C:\\Program Files\\Unity\\Hub\\Editor\\2020.3.1f1\\Editor\\Data\\PlaybackEngines\\WebGLSupport\\BuildTools\\lib\\modules_optsize\\WebGLSupport_AIModule_Dynamic.bc\" \"C:\\Program Files\\Unity\\Hub\\Editor\\2020.3.1f1\\Editor\\Data\\PlaybackEngines\\WebGLSupport\\BuildTools\\lib\\modules_optsize\\WebGLSupport_AndroidJNIModule_Dynamic.bc\" \"C:\\Program Files\\Unity\\Hub\\Editor\\2020.3.1f1\\Editor\\Data\\PlaybackEngines\\WebGLSupport\\BuildTools\\lib\\modules_optsize\\WebGLSupport_AnimationModule_Dynamic.bc\" \"C:\\Program Files\\Unity\\Hub\\Editor\\2020.3.1f1\\Editor\\Data\\PlaybackEngines\\WebGLSupport\\BuildTools\\lib\\modules_optsize\\WebGLSupport_AssetBundleModule_Dynamic.bc\" \"C:\\Program Files\\Unity\\Hub\\Editor\\2020.3.1f1\\Editor\\Data\\PlaybackEngines\\WebGLSupport\\BuildTools\\lib\\modules_optsize\\WebGLSupport_AudioModule_Dynamic.bc\" \"C:\\Program Files\\Unity\\Hub\\Editor\\2020.3.1f1\\Editor\\Data\\PlaybackEngines\\WebGLSupport\\BuildTools\\lib\\modules_optsize\\WebGLSupport_ClothModule_Dynamic.bc\" \"C:\\Program Files\\Unity\\Hub\\Editor\\2020.3.1f1\\Editor\\Data\\PlaybackEngines\\WebGLSupport\\BuildTools\\lib\\modules_optsize\\WebGLSupport_CoreModule_Dynamic.bc\" \"C:\\Program Files\\Unity\\Hub\\Editor\\2020.3.1f1\\Editor\\Data\\PlaybackEngines\\WebGLSupport\\BuildTools\\lib\\modules_optsize\\WebGLSupport_CrashReportingModule_Dynamic.bc\" \"C:\\Program Files\\Unity\\Hub\\Editor\\2020.3.1f1\\Editor\\Data\\PlaybackEngines\\WebGLSupport\\BuildTools\\lib\\modules_optsize\\WebGLSupport_DirectorModule_Dynamic.bc\" \"C:\\Program Files\\Unity\\Hub\\Editor\\2020.3.1f1\\Editor\\Data\\PlaybackEngines\\WebGLSupport\\BuildTools\\lib\\modules_optsize\\WebGLSupport_DSPGraphModule_Dynamic.bc\" \"C:\\Program Files\\Unity\\Hub\\Editor\\2020.3.1f1\\Editor\\Data\\PlaybackEngines\\WebGLSupport\\BuildTools\\lib\\modules_optsize\\WebGLSupport_GameCenterModule_Dynamic.bc\" \"C:\\Program Files\\Unity\\Hub\\Editor\\2020.3.1f1\\Editor\\Data\\PlaybackEngines\\WebGLSupport\\BuildTools\\lib\\modules_optsize\\WebGLSupport_GIModule_Dynamic.bc\" \"C:\\Program Files\\Unity\\Hub\\Editor\\2020.3.1f1\\Editor\\Data\\PlaybackEngines\\WebGLSupport\\BuildTools\\lib\\modules_optsize\\WebGLSupport_GridModule_Dynamic.bc\" \"C:\\Program Files\\Unity\\Hub\\Editor\\2020.3.1f1\\Editor\\Data\\PlaybackEngines\\WebGLSupport\\BuildTools\\lib\\modules_optsize\\WebGLSupport_HotReloadModule_Dynamic.bc\" \"C:\\Program Files\\Unity\\Hub\\Editor\\2020.3.1f1\\Editor\\Data\\PlaybackEngines\\WebGLSupport\\BuildTools\\lib\\modules_optsize\\WebGLSupport_ImageConversionModule_Dynamic.bc\" \"C:\\Program Files\\Unity\\Hub\\Editor\\2020.3.1f1\\Editor\\Data\\PlaybackEngines\\WebGLSupport\\BuildTools\\lib\\modules_optsize\\WebGLSupport_IMGUIModule_Dynamic.bc\" \"C:\\Program Files\\Unity\\Hub\\Editor\\2020.3.1f1\\Editor\\Data\\PlaybackEngines\\WebGLSupport\\BuildTools\\lib\\modules_optsize\\WebGLSupport_InputLegacyModule_Dynamic.bc\" \"C:\\Program Files\\Unity\\Hub\\Editor\\2020.3.1f1\\Editor\\Data\\PlaybackEngines\\WebGLSupport\\BuildTools\\lib\\modules_optsize\\WebGLSupport_InputModule_Dynamic.bc\" \"C:\\Program Files\\Unity\\Hub\\Editor\\2020.3.1f1\\Editor\\Data\\PlaybackEngines\\WebGLSupport\\BuildTools\\lib\\modules_optsize\\WebGLSupport_JSONSerializeModule_Dynamic.bc\" \"C:\\Program Files\\Unity\\Hub\\Editor\\2020.3.1f1\\Editor\\Data\\PlaybackEngines\\WebGLSupport\\BuildTools\\lib\\modules_optsize\\WebGLSupport_LocalizationModule_Dynamic.bc\" \"C:\\Program Files\\Unity\\Hub\\Editor\\2020.3.1f1\\Editor\\Data\\PlaybackEngines\\WebGLSupport\\BuildTools\\lib\\modules_optsize\\WebGLSupport_ParticleSystemModule_Dynamic.bc\" \"C:\\Program Files\\Unity\\Hub\\Editor\\2020.3.1f1\\Editor\\Data\\PlaybackEngines\\WebGLSupport\\BuildTools\\lib\\modules_optsize\\WebGLSupport_PerformanceReportingModule_Dynamic.bc\" \"C:\\Program Files\\Unity\\Hub\\Editor\\2020.3.1f1\\Editor\\Data\\PlaybackEngines\\WebGLSupport\\BuildTools\\lib\\modules_optsize\\WebGLSupport_Physics2DModule_Dynamic.bc\" \"C:\\Program Files\\Unity\\Hub\\Editor\\2020.3.1f1\\Editor\\Data\\PlaybackEngines\\WebGLSupport\\BuildTools\\lib\\modules_optsize\\WebGLSupport_PhysicsModule_Dynamic.bc\" \"C:\\Program Files\\Unity\\Hub\\Editor\\2020.3.1f1\\Editor\\Data\\PlaybackEngines\\WebGLSupport\\BuildTools\\lib\\modules_optsize\\WebGLSupport_ProfilerModule_Dynamic.bc\" \"C:\\Program Files\\Unity\\Hub\\Editor\\2020.3.1f1\\Editor\\Data\\PlaybackEngines\\WebGLSupport\\BuildTools\\lib\\modules_optsize\\WebGLSupport_RuntimeInitializeOnLoadManagerInitializerModule_Dynamic.bc\" \"C:\\Program Files\\Unity\\Hub\\Editor\\2020.3.1f1\\Editor\\Data\\PlaybackEngines\\WebGLSupport\\BuildTools\\lib\\modules_optsize\\WebGLSupport_ScreenCaptureModule_Dynamic.bc\" \"C:\\Program Files\\Unity\\Hub\\Editor\\2020.3.1f1\\Editor\\Data\\PlaybackEngines\\WebGLSupport\\BuildTools\\lib\\modules_optsize\\WebGLSupport_SharedInternalsModule_Dynamic.bc\" \"C:\\Program Files\\Unity\\Hub\\Editor\\2020.3.1f1\\Editor\\Data\\PlaybackEngines\\WebGLSupport\\BuildTools\\lib\\modules_optsize\\WebGLSupport_SpriteMaskModule_Dynamic.bc\" \"C:\\Program Files\\Unity\\Hub\\Editor\\2020.3.1f1\\Editor\\Data\\PlaybackEngines\\WebGLSupport\\BuildTools\\lib\\modules_optsize\\WebGLSupport_SpriteShapeModule_Dynamic.bc\" \"C:\\Program Files\\Unity\\Hub\\Editor\\2020.3.1f1\\Editor\\Data\\PlaybackEngines\\WebGLSupport\\BuildTools\\lib\\modules_optsize\\WebGLSupport_StreamingModule_Dynamic.bc\" \"C:\\Program Files\\Unity\\Hub\\Editor\\2020.3.1f1\\Editor\\Data\\PlaybackEngines\\WebGLSupport\\BuildTools\\lib\\modules_optsize\\WebGLSupport_SubstanceModule_Dynamic.bc\" \"C:\\Program Files\\Unity\\Hub\\Editor\\2020.3.1f1\\Editor\\Data\\PlaybackEngines\\WebGLSupport\\BuildTools\\lib\\modules_optsize\\WebGLSupport_SubsystemsModule_Dynamic.bc\" \"C:\\Program Files\\Unity\\Hub\\Editor\\2020.3.1f1\\Editor\\Data\\PlaybackEngines\\WebGLSupport\\BuildTools\\lib\\modules_optsize\\WebGLSupport_TerrainModule_Dynamic.bc\" \"C:\\Program Files\\Unity\\Hub\\Editor\\2020.3.1f1\\Editor\\Data\\PlaybackEngines\\WebGLSupport\\BuildTools\\lib\\modules_optsize\\WebGLSupport_TerrainPhysicsModule_Dynamic.bc\" \"C:\\Program Files\\Unity\\Hub\\Editor\\2020.3.1f1\\Editor\\Data\\PlaybackEngines\\WebGLSupport\\BuildTools\\lib\\modules_optsize\\WebGLSupport_TextCoreModule_Dynamic.bc\" \"C:\\Program Files\\Unity\\Hub\\Editor\\2020.3.1f1\\Editor\\Data\\PlaybackEngines\\WebGLSupport\\BuildTools\\lib\\modules_optsize\\WebGLSupport_TextRenderingModule_Dynamic.bc\" \"C:\\Program Files\\Unity\\Hub\\Editor\\2020.3.1f1\\Editor\\Data\\PlaybackEngines\\WebGLSupport\\BuildTools\\lib\\modules_optsize\\WebGLSupport_TilemapModule_Dynamic.bc\" \"C:\\Program Files\\Unity\\Hub\\Editor\\2020.3.1f1\\Editor\\Data\\PlaybackEngines\\WebGLSupport\\BuildTools\\lib\\modules_optsize\\WebGLSupport_TLSModule_Dynamic.bc\" \"C:\\Program Files\\Unity\\Hub\\Editor\\2020.3.1f1\\Editor\\Data\\PlaybackEngines\\WebGLSupport\\BuildTools\\lib\\modules_optsize\\WebGLSupport_UIElementsModule_Dynamic.bc\" \"C:\\Program Files\\Unity\\Hub\\Editor\\2020.3.1f1\\Editor\\Data\\PlaybackEngines\\WebGLSupport\\BuildTools\\lib\\modules_optsize\\WebGLSupport_UIElementsNativeModule_Dynamic.bc\" \"C:\\Program Files\\Unity\\Hub\\Editor\\2020.3.1f1\\Editor\\Data\\PlaybackEngines\\WebGLSupport\\BuildTools\\lib\\modules_optsize\\WebGLSupport_UIModule_Dynamic.bc\" \"C:\\Program Files\\Unity\\Hub\\Editor\\2020.3.1f1\\Editor\\Data\\PlaybackEngines\\WebGLSupport\\BuildTools\\lib\\modules_optsize\\WebGLSupport_UmbraModule_Dynamic.bc\" \"C:\\Program Files\\Unity\\Hub\\Editor\\2020.3.1f1\\Editor\\Data\\PlaybackEngines\\WebGLSupport\\BuildTools\\lib\\modules_optsize\\WebGLSupport_UNETModule_Dynamic.bc\" \"C:\\Program Files\\Unity\\Hub\\Editor\\2020.3.1f1\\Editor\\Data\\PlaybackEngines\\WebGLSupport\\BuildTools\\lib\\modules_optsize\\WebGLSupport_UnityAnalyticsModule_Dynamic.bc\" \"C:\\Program Files\\Unity\\Hub\\Editor\\2020.3.1f1\\Editor\\Data\\PlaybackEngines\\WebGLSupport\\BuildTools\\lib\\modules_optsize\\WebGLSupport_UnityConnectModule_Dynamic.bc\" \"C:\\Program Files\\Unity\\Hub\\Editor\\2020.3.1f1\\Editor\\Data\\PlaybackEngines\\WebGLSupport\\BuildTools\\lib\\modules_optsize\\WebGLSupport_UnityCurlModule_Dynamic.bc\" \"C:\\Program Files\\Unity\\Hub\\Editor\\2020.3.1f1\\Editor\\Data\\PlaybackEngines\\WebGLSupport\\BuildTools\\lib\\modules_optsize\\WebGLSupport_UnityTestProtocolModule_Dynamic.bc\" \"C:\\Program Files\\Unity\\Hub\\Editor\\2020.3.1f1\\Editor\\Data\\PlaybackEngines\\WebGLSupport\\BuildTools\\lib\\modules_optsize\\WebGLSupport_UnityWebRequestAssetBundleModule_Dynamic.bc\" \"C:\\Program Files\\Unity\\Hub\\Editor\\2020.3.1f1\\Editor\\Data\\PlaybackEngines\\WebGLSupport\\BuildTools\\lib\\modules_optsize\\WebGLSupport_UnityWebRequestAudioModule_Dynamic.bc\" \"C:\\Program Files\\Unity\\Hub\\Editor\\2020.3.1f1\\Editor\\Data\\PlaybackEngines\\WebGLSupport\\BuildTools\\lib\\modules_optsize\\WebGLSupport_UnityWebRequestModule_Dynamic.bc\" \"C:\\Program Files\\Unity\\Hub\\Editor\\2020.3.1f1\\Editor\\Data\\PlaybackEngines\\WebGLSupport\\BuildTools\\lib\\modules_optsize\\WebGLSupport_UnityWebRequestTextureModule_Dynamic.bc\" \"C:\\Program Files\\Unity\\Hub\\Editor\\2020.3.1f1\\Editor\\Data\\PlaybackEngines\\WebGLSupport\\BuildTools\\lib\\modules_optsize\\WebGLSupport_UnityWebRequestWWWModule_Dynamic.bc\" \"C:\\Program Files\\Unity\\Hub\\Editor\\2020.3.1f1\\Editor\\Data\\PlaybackEngines\\WebGLSupport\\BuildTools\\lib\\modules_optsize\\WebGLSupport_VehiclesModule_Dynamic.bc\" \"C:\\Program Files\\Unity\\Hub\\Editor\\2020.3.1f1\\Editor\\Data\\PlaybackEngines\\WebGLSupport\\BuildTools\\lib\\modules_optsize\\WebGLSupport_VFXModule_Dynamic.bc\" \"C:\\Program Files\\Unity\\Hub\\Editor\\2020.3.1f1\\Editor\\Data\\PlaybackEngines\\WebGLSupport\\BuildTools\\lib\\modules_optsize\\WebGLSupport_VideoModule_Dynamic.bc\" \"C:\\Program Files\\Unity\\Hub\\Editor\\2020.3.1f1\\Editor\\Data\\PlaybackEngines\\WebGLSupport\\BuildTools\\lib\\modules_optsize\\WebGLSupport_VRModule_Dynamic.bc\" \"C:\\Program Files\\Unity\\Hub\\Editor\\2020.3.1f1\\Editor\\Data\\PlaybackEngines\\WebGLSupport\\BuildTools\\lib\\modules_optsize\\WebGLSupport_WebGLModule_Dynamic.bc\" \"C:\\Program Files\\Unity\\Hub\\Editor\\2020.3.1f1\\Editor\\Data\\PlaybackEngines\\WebGLSupport\\BuildTools\\lib\\modules_optsize\\WebGLSupport_WindModule_Dynamic.bc\" \"C:\\Program Files\\Unity\\Hub\\Editor\\2020.3.1f1\\Editor\\Data\\PlaybackEngines\\WebGLSupport\\BuildTools\\lib\\modules_optsize\\WebGLSupport_XRModule_Dynamic.bc\" \"C:\\Program Files\\Unity\\Hub\\Editor\\2020.3.1f1\\Editor\\Data\\PlaybackEngines\\WebGLSupport\\Variations\\nondevelopment\\baselib.bc\" @\"C:\\Users\\rahul\\AppData\\Local\\Temp\\_750210795\\response.rsp\"\r\n\r\nWrote crash dump file \"C:\\Users\\rahul\\AppData\\Local\\Temp\\llvm-link.exe-6dfed1.dmp\"\r\n0x00007FF940334F69 (0x0000CF5DCC4D0F42 0x00007FF700000000 0x0000000000000008 0x00007FF93FCD39CE), RaiseException() + 0x69 bytes(s)\r\n0x00007FF93A154890 (0x0000000000000000 0x0000000000008000 0x0000000000400000 0x0000000000008000)\r\n0x00007FF7F0E3EE87 (0x0000000000400000 0x00000093C978E628 0x00000093C978E6A8 0x000001AFA7986FA0)\r\n0x00007FF7F0E3DF1D (0x000001AFA7986FA0 0x000001AFA7986FB0 0x000001AFA42536C0 0x000001AFACC27C58)\r\n0x00007FF7F0D6A0CE (0x000001AF00010000 0x000001AF8EEE5600 0x0000009300000040 0x00000093C978F0F8)\r\n0x00007FF7F0DBB585 (0x000001AFA7986F58 0x000001AFA42536C0 0x00000093C978F350 0x000001AFACC27C58)\r\n0x00007FF7F0DBDA1B (0x000001AF85F2B8F0 0x00000093C978E9C0 0x000001AFACC27C48 0x00000093C978EA09)\r\n0x00007FF7F0DBE890 (0x000001AF8C6D6A90 0x000001AF8EF1C280 0x000001AFACC27C70 0x00000093C978F350)\r\n0x00007FF7F0DBE6E3 (0x000001AFA766BD78 0x000001AFA42536C0 0x00000093C978EC20 0x000001AFA42536C0)\r\n0x00007FF7F0DBC15B (0x0000000000000002 0x000001AFA42536C0 0x000001AF8DD4E080 0x000001AFACF3D078)\r\n0x00007FF7F0DBE080 (0x00000093C978EDF0 0x000001AF94D672E8 0x00000093C978EDF0 0x00000093C978F640)\r\n0x00007FF7F0D6EA1E (0x00000093C978F2C0 0x0000000000000000 0x00000093C978F640 0x00000093C978F640)\r\n0x00007FF7F0D6CEA5 (0x000001AFA9104118 0x0000000000000000 0x0000000000000000 0x000001AF85D1D8F8)\r\n0x00007FF7F0D7107E (0x0000000000000000 0x00000093C978F600 0x0000000000000000 0x000001AF842F6DD0)\r\n0x00007FF7F0D70487 (0x000001AF842F8B80 0x000001AF842C7D10 0x00000093C978F571 0x0000000000000000)\r\n0x00007FF7F0C5D34D (0x000001AF842F6DD0 0x00000093C978F600 0x00000093C978F640 0x0000000000000000)\r\n0x00007FF7F0C5DF8D (0x0000000000000000 0x0000000000000000 0x00007FF93FDC1248 0x00007FF93FDC07A8)\r\n0x00007FF7F0E3E799 (0x0000000000000000 0x0000000000000000 0x0000000000000000 0x0000000000000000)\r\n0x00007FF940EB7034 (0x0000000000000000 0x0000000000000000 0x0000000000000000 0x0000000000000000)\r\n0x00007FF942602651 (0x0000000000000000 0x0000000000000000 0x0000000000000000 0x0000000000000000)\r\nTraceback (most recent call last):\r\n  File \"C:\\Program Files\\Unity\\Hub\\Editor\\2020.3.1f1\\Editor\\Data\\PlaybackEngines\\WebGLSupport\\BuildTools\\Emscripten\\emcc.py\", line 3063, in <module>\r\n    sys.exit(run())\r\n  File \"C:\\Program Files\\Unity\\Hub\\Editor\\2020.3.1f1\\Editor\\Data\\PlaybackEngines\\WebGLSupport\\BuildTools\\Emscripten\\emcc.py\", line 1607, in run\r\n    shared.Building.link(linker_inputs, specified_target)\r\n  File \"C:\\Program Files\\Unity\\Hub\\Editor\\2020.3.1f1\\Editor\\Data\\PlaybackEngines\\WebGLSupport\\BuildTools\\Emscripten\\tools\\shared.py\", line 2114, in link\r\n    output = run_process([LLVM_LINK] + link_args + ['-o', target], stdout=PIPE).stdout\r\n  File \"C:\\Program Files\\Unity\\Hub\\Editor\\2020.3.1f1\\Editor\\Data\\PlaybackEngines\\WebGLSupport\\BuildTools\\Emscripten\\tools\\shared.py\", line 167, in run_process\r\n    return run_base(cmd, universal_newlines=universal_newlines, check=check, *args, **kw)\r\n  File \"C:\\Program Files\\Unity\\Hub\\Editor\\2020.3.1f1\\Editor\\Data\\PlaybackEngines\\WebGLSupport\\BuildTools\\Emscripten\\tools\\shared.py\", line 162, in run_base\r\n    result.check_returncode()\r\n  File \"C:\\Program Files\\Unity\\Hub\\Editor\\2020.3.1f1\\Editor\\Data\\PlaybackEngines\\WebGLSupport\\BuildTools\\Emscripten\\tools\\shared.py\", line 148, in check_returncode\r\n    raise Py2CalledProcessError(returncode=self.returncode, cmd=self.args, output=self.stdout, stderr=self.stderr)\r\ntools.shared.Py2CalledProcessError: Command '['C:/Program Files/Unity/Hub/Editor/2020.3.1f1/Editor/Data/PlaybackEngines/WebGLSupport\\\\BuildTools\\\\Emscripten_FastComp_Win\\\\llvm-link.exe', '@C:\\\\Users\\\\rahul\\\\AppData\\\\Local\\\\Temp\\\\tmpdzbewf.response', '-o', 'C:\\\\Unity_projects\\\\kart\\\\Library\\\\il2cpp_cache\\\\linkresult_70B9FED35ACF3825B4B190466A692B50\\\\build.bc']' returned non-zero exit status -529697949\r\n\r\n\r\n   at Unity.IL2CPP.Building.CppProgramBuilder.PostprocessObjectFiles(HashSet`1 objectFiles, CppToolChainContext toolChainContext)\r\n   at Unity.IL2CPP.Building.CppProgramBuilder.Build(IBuildStatistics& statistics)\r\n   at il2cpp.Compilation.CompilationDriver.Run(RuntimePlatform platform, BuildingOptions buildingOptions, ReadOnlyCollection`1 matchedAssemblyMethodSourceFiles)\r\n   at il2cpp.Program.DoRun(String[] args, RuntimePlatform platform, BuildingOptions buildingOptions, Boolean throwExceptions)"}
